{
  "project_info": {
    "project_number": "83969223469",
    "project_id": "mtn-academy-38a4e",
    "storage_bucket": "mtn-academy-38a4e.appspot.com"
  },
  "client": [
    {
      "client_info": {
        "mobilesdk_app_id": "1:83969223469:android:31f780141729af84c7c1a4",
        "android_client_info": {
          "package_name": "com.example.flutter_application_1"
        }
      },
      "oauth_client": [
        {
          "client_id": "83969223469-prl3ama0ka9r18n6vb571tcvi8khgrfj.apps.googleusercontent.com",
          "client_type": 3
        }
      ],
      "api_key": [
        {
          "current_key": "AIzaSyDNxtFU2SMI4-zbDOZkPOCkHErPHV_lGiQ"
        }
      ],
      "services": {
        "appinvite_service": {
          "other_platform_oauth_client": [
            {
              "client_id": "83969223469-prl3ama0ka9r18n6vb571tcvi8khgrfj.apps.googleusercontent.com",
              "client_type": 3
            }
          ]
        }
      }
    }
  ],
  "configuration_version": "1"
}